<svg width="32" height="14" viewBox="0 0 32 14" fill="none" xmlns="http://www.w3.org/2000/svg">
<path d="M17.3854 7.84193C17.245 7.93292 17.1104 8.03184 16.9823 8.13815C15.9144 9.15813 14.8846 10.2117 13.7764 11.1942C12.6302 12.2166 11.2734 12.9982 9.79322 13.4889C5.97188 14.7468 2.19588 13.1709 0.626936 9.91349C-0.325566 7.93869 -0.163723 5.92242 0.915573 4.0197C1.95982 2.1782 3.58237 0.988387 5.71004 0.465065C7.80575 -0.0493707 9.7592 0.332753 11.592 1.38236C12.8012 2.07354 13.8517 2.9622 14.8969 3.94269C14.5186 4.2784 14.1527 4.60424 13.7847 4.93009C13.4837 5.1957 13.1754 5.45242 12.8827 5.72593C12.7033 5.89379 12.5878 5.877 12.3899 5.72001C11.5817 5.07918 10.8004 4.38504 9.91589 3.85975C8.56033 3.05699 7.10684 2.9385 5.63685 3.66918C4.13388 4.41565 3.2659 6.23642 3.54011 7.81626C3.98646 10.3766 6.77387 11.7076 9.42315 10.5306C10.9199 9.86511 12.1436 8.85204 13.2971 7.74813C14.4114 6.68371 15.4886 5.58473 16.6267 4.545C17.7905 3.48157 18.9327 2.37272 20.2151 1.4574C24.5611 -1.66081 30.7297 0.450254 31.8523 5.64398C32.2345 7.43031 31.8681 9.28895 30.8323 10.8188C29.7965 12.3487 28.1743 13.4272 26.3156 13.8216C22.3469 14.6688 18.6812 12.4126 17.6483 8.8708C17.5586 8.56174 17.4895 8.25071 17.3854 7.84193ZM20.4687 6.95327C20.3656 9.05939 22.2582 11.0293 24.6539 11.0342C25.4935 11.0444 26.3174 10.8154 27.021 10.3764C27.7246 9.93742 28.2763 9.30814 28.6059 8.56841C28.9356 7.82867 29.0285 7.01182 28.8728 6.22145C28.7171 5.43108 28.3198 4.70282 27.7314 4.12903C27.1429 3.55525 26.3898 3.16181 25.5676 2.9986C24.7453 2.8354 23.891 2.90979 23.113 3.21235C22.3349 3.5149 21.6682 4.03198 21.1975 4.698C20.7267 5.36402 20.473 6.14896 20.4687 6.95327Z" fill="#001D41"/>
</svg>
